/Users/subramanyajoshi/Documents/tlvprocessor/src/main/java/com/mobileiron/tlvinterpreter/Expression.java
/Users/subramanyajoshi/Documents/tlvprocessor/src/main/java/com/mobileiron/tlvinterpreter/TlvInterpreter.java
/Users/subramanyajoshi/Documents/tlvprocessor/src/main/java/com/mobileiron/tlvprocessor/TlvProcessorApp.java
/Users/subramanyajoshi/Documents/tlvprocessor/src/main/java/com/mobileiron/tlvinterpreter/UppercaseExpression.java
/Users/subramanyajoshi/Documents/tlvprocessor/src/main/java/com/mobileiron/tlvinterpreter/ValueExpression.java
/Users/subramanyajoshi/Documents/tlvprocessor/src/main/java/com/mobileiron/tlvinterpreter/ReplaceExpression.java
/Users/subramanyajoshi/Documents/tlvprocessor/src/main/java/config/TlvProcessorConfig.java
